[gd_scene load_steps=10 format=2]

[ext_resource path="res://nanogames/gravity_shift/main.gd" type="Script" id=1]
[ext_resource path="res://nanogames/gravity_shift/robot/robot.tscn" type="PackedScene" id=2]
[ext_resource path="res://shaders/texture_scroll.shader" type="Shader" id=3]
[ext_resource path="res://nanogames/gravity_shift/assets/background.png" type="Texture" id=4]
[ext_resource path="res://nanogames/gravity_shift/assets/floor.png" type="Texture" id=5]
[ext_resource path="res://nanogames/gravity_shift/assets/cables.png" type="Texture" id=6]
[ext_resource path="res://nanogames/gravity_shift/assets/music.ogg" type="AudioStream" id=7]

[sub_resource type="ShaderMaterial" id=1]
shader = ExtResource( 3 )
shader_param/direction_speed = Vector2( -1.25, 0 )
shader_param/offset_x = 0.0
shader_param/offset_y = 0.0

[sub_resource type="ShaderMaterial" id=2]
shader = ExtResource( 3 )
shader_param/direction_speed = Vector2( -2.5, 0 )
shader_param/offset_x = 0.0
shader_param/offset_y = 0.0

[node name="Main" type="Node2D"]
script = ExtResource( 1 )
__meta__ = {
"_edit_lock_": true
}

[node name="Robot" parent="." instance=ExtResource( 2 )]
position = Vector2( 42, 562 )

[node name="ObstaclePosition" type="Position2D" parent="."]
position = Vector2( 1100, 360 )

[node name="Camera2D" type="Camera2D" parent="."]
position = Vector2( 480, 360 )
current = true

[node name="ObstacleSpawn" type="Timer" parent="."]
wait_time = 1.9

[node name="Music" type="AudioStreamPlayer" parent="."]
stream = ExtResource( 7 )
autoplay = true
bus = "Music"

[node name="Background" type="CanvasLayer" parent="."]
layer = -1

[node name="Full" type="TextureRect" parent="Background"]
material = SubResource( 1 )
anchor_right = 1.0
anchor_bottom = 1.0
margin_right = -640.0
margin_bottom = -480.0
rect_scale = Vector2( 3, 3 )
texture = ExtResource( 4 )
stretch_mode = 2
__meta__ = {
"_edit_lock_": true,
"_edit_use_anchors_": false
}

[node name="Center" type="NinePatchRect" parent="Background"]
anchor_top = 0.5
anchor_right = 1.0
anchor_bottom = 0.5
margin_top = -180.0
margin_right = -640.0
margin_bottom = -60.0
rect_scale = Vector2( 3, 3 )
texture = ExtResource( 4 )
region_rect = Rect2( 4, 0, 72, 60 )
patch_margin_top = 2
patch_margin_bottom = 2
__meta__ = {
"_edit_use_anchors_": false
}

[node name="Cables" type="TextureRect" parent="Background"]
material = SubResource( 1 )
anchor_top = 0.5
anchor_right = 1.0
anchor_bottom = 0.5
margin_top = -45.0
margin_right = -640.0
margin_bottom = -15.0
rect_scale = Vector2( 3, 3 )
texture = ExtResource( 6 )
stretch_mode = 2
__meta__ = {
"_edit_use_anchors_": false
}

[node name="Foreground" type="CanvasLayer" parent="."]

[node name="Floor" type="TextureRect" parent="Foreground"]
material = SubResource( 2 )
anchor_top = 1.0
anchor_right = 1.0
anchor_bottom = 1.0
margin_top = -45.0
margin_right = -640.0
margin_bottom = -30.0
rect_scale = Vector2( 3, 3 )
texture = ExtResource( 5 )
stretch_mode = 2
__meta__ = {
"_edit_use_anchors_": false
}

[node name="Ceiling" type="TextureRect" parent="Foreground"]
material = SubResource( 2 )
anchor_right = 1.0
margin_right = -640.0
margin_bottom = 15.0
rect_scale = Vector2( 3, 3 )
texture = ExtResource( 5 )
stretch_mode = 2
flip_v = true
__meta__ = {
"_edit_use_anchors_": false
}

[node name="RobotPivot" type="Control" parent="Foreground"]
anchor_left = 0.5
anchor_top = 0.5
anchor_right = 0.5
anchor_bottom = 0.5
margin_left = -480.0
margin_top = -360.0
margin_right = -440.0
margin_bottom = -320.0
__meta__ = {
"_edit_lock_": true,
"_edit_use_anchors_": false
}

[connection signal="hit" from="Robot" to="." method="_on_Robot_hit" flags=3]
[connection signal="timeout" from="ObstacleSpawn" to="." method="_spawn_obstacle"]
