[gd_scene load_steps=2 format=2]

[ext_resource path="res://managers/game_manager/game_manager.gd" type="Script" id=1]

[node name="GameManager" type="CanvasLayer"]
layer = 5
script = ExtResource( 1 )

[node name="Fade" type="ColorRect" parent="."]
anchor_right = 1.0
anchor_bottom = 1.0
mouse_filter = 2
color = Color( 0, 0, 0, 0 )
__meta__ = {
"_edit_lock_": true,
"_edit_use_anchors_": false
}

[node name="Tween" type="Tween" parent="."]
