[gd_scene load_steps=10 format=2]

[ext_resource path="res://nanogames/ballkeep/main.gd" type="Script" id=1]
[ext_resource path="res://nanogames/ballkeep/paddle/paddle.tscn" type="PackedScene" id=2]
[ext_resource path="res://nanogames/ballkeep/ball/ball.tscn" type="PackedScene" id=3]
[ext_resource path="res://nanogames/ballkeep/assets/track.png" type="Texture" id=4]
[ext_resource path="res://nanogames/ballkeep/assets/background.png" type="Texture" id=5]
[ext_resource path="res://nanogames/ballkeep/assets/music.ogg" type="AudioStream" id=6]
[ext_resource path="res://nanogames/ballkeep/assets/alarm.wav" type="AudioStream" id=7]

[sub_resource type="CircleShape2D" id=1]
radius = 310.0

[sub_resource type="Animation" id=2]
resource_name = "alarm"
length = 0.4
tracks/0/type = "value"
tracks/0/path = NodePath("Light/ColorRect:color:a")
tracks/0/interp = 1
tracks/0/loop_wrap = true
tracks/0/imported = false
tracks/0/enabled = true
tracks/0/keys = {
"times": PoolRealArray( 0, 0.4 ),
"transitions": PoolRealArray( 1, 1 ),
"update": 0,
"values": [ 0.0, 0.3 ]
}

[node name="Main" type="Node2D"]
script = ExtResource( 1 )
__meta__ = {
"_edit_lock_": true
}

[node name="Track" type="Sprite" parent="."]
position = Vector2( 480, 360 )
texture = ExtResource( 4 )

[node name="Stay" type="Area2D" parent="."]
position = Vector2( 480, 360 )
monitorable = false
__meta__ = {
"_edit_group_": true
}

[node name="CollisionShape2D" type="CollisionShape2D" parent="Stay"]
shape = SubResource( 1 )

[node name="Paddle" parent="." instance=ExtResource( 2 )]
position = Vector2( 480, 360 )

[node name="Ball" parent="." instance=ExtResource( 3 )]
position = Vector2( 480, 360 )

[node name="Camera2D" type="Camera2D" parent="."]
position = Vector2( 480, 360 )
current = true

[node name="Music" type="AudioStreamPlayer" parent="."]
stream = ExtResource( 6 )
autoplay = true
bus = "Music"

[node name="Alarm" type="AudioStreamPlayer" parent="."]
stream = ExtResource( 7 )
bus = "Effects"

[node name="Background" type="CanvasLayer" parent="."]
layer = -1

[node name="TextureRect" type="TextureRect" parent="Background"]
anchor_right = 1.0
anchor_bottom = 1.0
texture = ExtResource( 5 )
stretch_mode = 2
__meta__ = {
"_edit_lock_": true,
"_edit_use_anchors_": false
}

[node name="Light" type="CanvasLayer" parent="."]

[node name="ColorRect" type="ColorRect" parent="Light"]
anchor_right = 1.0
anchor_bottom = 1.0
color = Color( 0.843137, 0.14902, 0.14902, 0 )
__meta__ = {
"_edit_lock_": true,
"_edit_use_anchors_": false
}

[node name="AnimationPlayer" type="AnimationPlayer" parent="."]
anims/alarm = SubResource( 2 )

[connection signal="body_exited" from="Stay" to="." method="_on_Stay_body_exited"]
