[gd_scene load_steps=20 format=2]

[ext_resource path="res://nanogames/buzzing_lunch/frog/frog.gd" type="Script" id=1]
[ext_resource path="res://nanogames/buzzing_lunch/frog/assets/tongue.png" type="Texture" id=2]
[ext_resource path="res://nanogames/buzzing_lunch/frog/assets/frog.png" type="Texture" id=3]
[ext_resource path="res://nanogames/buzzing_lunch/frog/assets/indicator.svg" type="Texture" id=4]
[ext_resource path="res://shaders/texture_scroll.shader" type="Shader" id=5]
[ext_resource path="res://nanogames/buzzing_lunch/frog/assets/indicator_fade.svg" type="Texture" id=6]
[ext_resource path="res://nanogames/buzzing_lunch/frog/assets/croak.wav" type="AudioStream" id=7]
[ext_resource path="res://nanogames/buzzing_lunch/frog/assets/slurp.wav" type="AudioStream" id=8]
[ext_resource path="res://nanogames/buzzing_lunch/frog/assets/lick_lips.wav" type="AudioStream" id=9]
[ext_resource path="res://nanogames/buzzing_lunch/frog/assets/sicken.wav" type="AudioStream" id=10]

[sub_resource type="ShaderMaterial" id=1]
shader = ExtResource( 5 )
shader_param/direction_speed = Vector2( 0, 1 )
shader_param/offset_x = 0.0
shader_param/offset_y = 0.0

[sub_resource type="CircleShape2D" id=2]
radius = 40.0

[sub_resource type="AudioStreamRandomPitch" id=3]
audio_stream = ExtResource( 8 )

[sub_resource type="Animation" id=4]
length = 0.8
tracks/0/type = "value"
tracks/0/path = NodePath("Body:position:y")
tracks/0/interp = 1
tracks/0/loop_wrap = true
tracks/0/imported = false
tracks/0/enabled = true
tracks/0/keys = {
"times": PoolRealArray( 0, 0.3, 0.5, 0.8 ),
"transitions": PoolRealArray( 2, 1, 1, 1 ),
"update": 0,
"values": [ 240.0, 0.0, -20.0, 0.0 ]
}
tracks/1/type = "value"
tracks/1/path = NodePath("Body:scale:y")
tracks/1/interp = 1
tracks/1/loop_wrap = true
tracks/1/imported = false
tracks/1/enabled = true
tracks/1/keys = {
"times": PoolRealArray( 0.3, 0.5, 0.8 ),
"transitions": PoolRealArray( 1, 1, 1 ),
"update": 0,
"values": [ 1.0, 1.2, 1.0 ]
}
tracks/2/type = "audio"
tracks/2/path = NodePath("Noises")
tracks/2/interp = 1
tracks/2/loop_wrap = true
tracks/2/imported = false
tracks/2/enabled = true
tracks/2/keys = {
"clips": [ {
"end_offset": 0.0,
"start_offset": 0.0,
"stream": ExtResource( 7 )
} ],
"times": PoolRealArray( 0.3 )
}
tracks/3/type = "animation"
tracks/3/path = NodePath("IndicatorAnimation")
tracks/3/interp = 1
tracks/3/loop_wrap = true
tracks/3/imported = false
tracks/3/enabled = true
tracks/3/keys = {
"clips": PoolStringArray( "fade_in" ),
"times": PoolRealArray( 0.8 )
}

[sub_resource type="Animation" id=5]
length = 0.4
tracks/0/type = "value"
tracks/0/path = NodePath("Body:position:y")
tracks/0/interp = 1
tracks/0/loop_wrap = true
tracks/0/imported = false
tracks/0/enabled = true
tracks/0/keys = {
"times": PoolRealArray( 0, 0.2, 0.4 ),
"transitions": PoolRealArray( 1, 1, 1 ),
"update": 0,
"values": [ 0.0, -20.0, 0.0 ]
}
tracks/1/type = "value"
tracks/1/path = NodePath("Body:scale:y")
tracks/1/interp = 1
tracks/1/loop_wrap = true
tracks/1/imported = false
tracks/1/enabled = true
tracks/1/keys = {
"times": PoolRealArray( 0, 0.2, 0.4 ),
"transitions": PoolRealArray( 1, 1, 1 ),
"update": 0,
"values": [ 1.0, 1.2, 1.0 ]
}

[sub_resource type="Animation" id=6]
length = 0.8
tracks/0/type = "value"
tracks/0/path = NodePath("Body:position:y")
tracks/0/interp = 1
tracks/0/loop_wrap = true
tracks/0/imported = false
tracks/0/enabled = true
tracks/0/keys = {
"times": PoolRealArray( 0.1, 0.4, 0.7 ),
"transitions": PoolRealArray( 1, 1, 1 ),
"update": 0,
"values": [ 0.0, 10.0, 0.0 ]
}
tracks/1/type = "value"
tracks/1/path = NodePath("Body:scale:y")
tracks/1/interp = 1
tracks/1/loop_wrap = true
tracks/1/imported = false
tracks/1/enabled = true
tracks/1/keys = {
"times": PoolRealArray( 0.1, 0.4, 0.7 ),
"transitions": PoolRealArray( 1, 1, 1 ),
"update": 0,
"values": [ 1.0, 0.9, 1.0 ]
}
tracks/2/type = "value"
tracks/2/path = NodePath("Tongue:rect_size:y")
tracks/2/interp = 1
tracks/2/loop_wrap = true
tracks/2/imported = false
tracks/2/enabled = true
tracks/2/keys = {
"times": PoolRealArray( 0.1, 0.4, 0.7 ),
"transitions": PoolRealArray( 0.5, 2, 1 ),
"update": 0,
"values": [ 393.0, 293.0, 393.0 ]
}
tracks/3/type = "value"
tracks/3/path = NodePath("Tongue:rect_rotation")
tracks/3/interp = 1
tracks/3/loop_wrap = true
tracks/3/imported = false
tracks/3/enabled = true
tracks/3/keys = {
"times": PoolRealArray( 0.1, 0.7 ),
"transitions": PoolRealArray( 1, 1 ),
"update": 0,
"values": [ 115.0, 245.0 ]
}
tracks/4/type = "audio"
tracks/4/path = NodePath("Noises")
tracks/4/interp = 1
tracks/4/loop_wrap = true
tracks/4/imported = false
tracks/4/enabled = true
tracks/4/keys = {
"clips": [ {
"end_offset": 0.0,
"start_offset": 0.0,
"stream": ExtResource( 9 )
} ],
"times": PoolRealArray( 0 )
}

[sub_resource type="Animation" id=7]
length = 0.8
tracks/0/type = "value"
tracks/0/path = NodePath("Body:position:y")
tracks/0/interp = 1
tracks/0/loop_wrap = true
tracks/0/imported = false
tracks/0/enabled = true
tracks/0/keys = {
"times": PoolRealArray( 0, 0.4, 0.8 ),
"transitions": PoolRealArray( 1, 1, 1 ),
"update": 0,
"values": [ 0.0, 28.0, 0.0 ]
}
tracks/1/type = "value"
tracks/1/path = NodePath("Body:scale:y")
tracks/1/interp = 1
tracks/1/loop_wrap = true
tracks/1/imported = false
tracks/1/enabled = true
tracks/1/keys = {
"times": PoolRealArray( 0, 0.4, 0.8 ),
"transitions": PoolRealArray( 1, 1, 1 ),
"update": 0,
"values": [ 1.0, 0.8, 1.0 ]
}
tracks/2/type = "value"
tracks/2/path = NodePath("Body:self_modulate")
tracks/2/interp = 1
tracks/2/loop_wrap = true
tracks/2/imported = false
tracks/2/enabled = true
tracks/2/keys = {
"times": PoolRealArray( 0, 0.4, 0.8 ),
"transitions": PoolRealArray( 1, 1, 1 ),
"update": 0,
"values": [ Color( 1, 1, 1, 1 ), Color( 0.890196, 0.0745098, 0.0745098, 1 ), Color( 1, 1, 1, 1 ) ]
}
tracks/3/type = "audio"
tracks/3/path = NodePath("Noises")
tracks/3/interp = 1
tracks/3/loop_wrap = true
tracks/3/imported = false
tracks/3/enabled = true
tracks/3/keys = {
"clips": [ {
"end_offset": 0.0,
"start_offset": 0.0,
"stream": ExtResource( 10 )
} ],
"times": PoolRealArray( 0.1 )
}

[sub_resource type="Animation" id=8]
length = 0.2
tracks/0/type = "value"
tracks/0/path = NodePath("Tongue/TongueIndicator:self_modulate:a")
tracks/0/interp = 1
tracks/0/loop_wrap = true
tracks/0/imported = false
tracks/0/enabled = true
tracks/0/keys = {
"times": PoolRealArray( 0, 0.2 ),
"transitions": PoolRealArray( 1, 1 ),
"update": 0,
"values": [ 0.0, 1.0 ]
}

[sub_resource type="Animation" id=9]
length = 0.1
tracks/0/type = "value"
tracks/0/path = NodePath("Tongue/TongueIndicator:self_modulate:a")
tracks/0/interp = 1
tracks/0/loop_wrap = true
tracks/0/imported = false
tracks/0/enabled = true
tracks/0/keys = {
"times": PoolRealArray( 0, 0.1 ),
"transitions": PoolRealArray( 1, 1 ),
"update": 0,
"values": [ 1.0, 0.0 ]
}

[node name="Frog" type="Node2D"]
script = ExtResource( 1 )

[node name="Body" type="Sprite" parent="."]
position = Vector2( 0, 240 )
texture = ExtResource( 3 )

[node name="Tongue" type="NinePatchRect" parent="."]
anchor_left = 0.5
anchor_top = 1.0
anchor_right = 0.5
anchor_bottom = 1.0
margin_left = -48.0
margin_top = 305.0
margin_right = 48.0
margin_bottom = 490.0
rect_rotation = 180.0
rect_pivot_offset = Vector2( 48, 0 )
texture = ExtResource( 2 )
region_rect = Rect2( 0, 0, 128, 200 )
patch_margin_top = 17
patch_margin_bottom = 168
axis_stretch_vertical = 1
__meta__ = {
"_edit_use_anchors_": false
}

[node name="TongueIndicator" type="TextureRect" parent="Tongue"]
self_modulate = Color( 1, 1, 1, 0 )
light_mask = 2
material = SubResource( 1 )
anchor_left = 0.5
anchor_right = 0.5
margin_left = -32.0
margin_top = 192.0
margin_right = 32.0
margin_bottom = 576.0
rect_pivot_offset = Vector2( 32, 128 )
texture = ExtResource( 4 )
stretch_mode = 2
__meta__ = {
"_edit_use_anchors_": false
}

[node name="TipFade" type="Light2D" parent="Tongue/TongueIndicator"]
position = Vector2( 32, 320 )
texture = ExtResource( 6 )
mode = 3
range_item_cull_mask = 2

[node name="Anchor" type="Control" parent="Tongue"]
anchor_left = 0.5
anchor_top = 1.0
anchor_right = 0.5
anchor_bottom = 1.0
margin_top = -51.0
margin_right = 2.0
margin_bottom = -49.0
__meta__ = {
"_edit_use_anchors_": false
}

[node name="FlyHitbox" type="Area2D" parent="Tongue/Anchor"]
input_pickable = false
__meta__ = {
"_edit_group_": true
}

[node name="CollisionShape2D" type="CollisionShape2D" parent="Tongue/Anchor/FlyHitbox"]
shape = SubResource( 2 )

[node name="FlyFollow" type="RemoteTransform2D" parent="Tongue/Anchor/FlyHitbox"]
update_rotation = false
update_scale = false

[node name="Slurp" type="AudioStreamPlayer2D" parent="Tongue/Anchor/FlyHitbox"]
stream = SubResource( 3 )
bus = "Effects"

[node name="Noises" type="AudioStreamPlayer2D" parent="."]
stream = ExtResource( 7 )
bus = "Effects"

[node name="Tween" type="Tween" parent="."]
playback_process_mode = 0

[node name="FrogAnimation" type="AnimationPlayer" parent="."]
autoplay = "appear"
anims/appear = SubResource( 4 )
anims/gulp = SubResource( 5 )
anims/lick_lips = SubResource( 6 )
anims/sicken = SubResource( 7 )

[node name="IndicatorAnimation" type="AnimationPlayer" parent="."]
anims/fade_in = SubResource( 8 )
anims/fade_out = SubResource( 9 )

[connection signal="body_entered" from="Tongue/Anchor/FlyHitbox" to="." method="_on_FlyHitbox_body_entered"]
[connection signal="animation_finished" from="FrogAnimation" to="." method="_on_FrogAnimation_animation_finished"]
