[gd_scene load_steps=14 format=2]

[ext_resource path="res://nanogames/gravity_shift/robot/robot.gd" type="Script" id=1]
[ext_resource path="res://nanogames/gravity_shift/robot/assets/robot.png" type="Texture" id=2]
[ext_resource path="res://nanogames/gravity_shift/robot/assets/scrap.png" type="Texture" id=3]
[ext_resource path="res://nanogames/gravity_shift/robot/assets/shift.wav" type="AudioStream" id=4]

[sub_resource type="Gradient" id=1]
offsets = PoolRealArray( 0, 0.25, 0.5, 0.75, 1 )
colors = PoolColorArray( 1, 1, 1, 1, 0.941176, 0.211765, 0.211765, 1, 1, 1, 1, 1, 0.941176, 0.211765, 0.211765, 1, 1, 1, 1, 0 )

[sub_resource type="GradientTexture" id=2]
gradient = SubResource( 1 )
width = 32

[sub_resource type="Curve" id=3]
min_value = 1.0
max_value = 3.0
_data = [ Vector2( 0, 1 ), 0.0, 2.0, 0, 1, Vector2( 1, 3 ), 2.0, 0.0, 1, 0 ]

[sub_resource type="CurveTexture" id=4]
width = 32
curve = SubResource( 3 )

[sub_resource type="ParticlesMaterial" id=5]
flag_disable_z = true
direction = Vector3( 0.25, -1, 0 )
gravity = Vector3( 0, 3000, 0 )
initial_velocity = 1250.0
angular_velocity = 100.0
angular_velocity_random = 1.0
orbit_velocity = 0.0
orbit_velocity_random = 0.0
angle = 360.0
angle_random = 1.0
scale = 3.0
scale_curve = SubResource( 4 )
color_ramp = SubResource( 2 )

[sub_resource type="CircleShape2D" id=6]
radius = 25.0

[sub_resource type="Animation" id=7]
length = 0.8
loop = true
tracks/0/type = "value"
tracks/0/path = NodePath("ShiftScaler/Body:position:y")
tracks/0/interp = 1
tracks/0/loop_wrap = true
tracks/0/imported = false
tracks/0/enabled = true
tracks/0/keys = {
"times": PoolRealArray( 0, 0.4 ),
"transitions": PoolRealArray( 1, 1 ),
"update": 0,
"values": [ 0.0, 10.0 ]
}
tracks/1/type = "value"
tracks/1/path = NodePath("ShiftScaler/Spark:offset")
tracks/1/interp = 1
tracks/1/loop_wrap = true
tracks/1/imported = false
tracks/1/enabled = true
tracks/1/keys = {
"times": PoolRealArray( 0, 0.4 ),
"transitions": PoolRealArray( 1, 1 ),
"update": 0,
"values": [ Vector2( 0, 27 ), Vector2( 0, 34 ) ]
}
tracks/2/type = "value"
tracks/2/path = NodePath("ShiftScaler/Spark:flip_h")
tracks/2/interp = 1
tracks/2/loop_wrap = true
tracks/2/imported = false
tracks/2/enabled = true
tracks/2/keys = {
"times": PoolRealArray( 0, 0.2, 0.4, 0.6 ),
"transitions": PoolRealArray( 1, 1, 1, 1 ),
"update": 1,
"values": [ false, true, false, true ]
}
tracks/3/type = "value"
tracks/3/path = NodePath("ShiftScaler/Spark:scale")
tracks/3/interp = 1
tracks/3/loop_wrap = true
tracks/3/imported = false
tracks/3/enabled = true
tracks/3/keys = {
"times": PoolRealArray( 0, 0.4 ),
"transitions": PoolRealArray( 1, 1 ),
"update": 0,
"values": [ Vector2( 3, 3 ), Vector2( 3.5, 2.5 ) ]
}

[sub_resource type="Animation" id=8]
length = 0.3
tracks/0/type = "value"
tracks/0/path = NodePath("ShiftScaler/Body:frame")
tracks/0/interp = 1
tracks/0/loop_wrap = true
tracks/0/imported = false
tracks/0/enabled = true
tracks/0/keys = {
"times": PoolRealArray( 0, 0.3 ),
"transitions": PoolRealArray( 1, 1 ),
"update": 1,
"values": [ 1, 0 ]
}
tracks/1/type = "value"
tracks/1/path = NodePath("ShiftScaler/Body:position:y")
tracks/1/interp = 1
tracks/1/loop_wrap = true
tracks/1/imported = false
tracks/1/enabled = true
tracks/1/keys = {
"times": PoolRealArray( 0, 0.1, 0.3 ),
"transitions": PoolRealArray( 1, 1, 1 ),
"update": 0,
"values": [ 0.0, 35.0, 0.0 ]
}
tracks/2/type = "value"
tracks/2/path = NodePath("ShiftScaler/Body:scale")
tracks/2/interp = 1
tracks/2/loop_wrap = true
tracks/2/imported = false
tracks/2/enabled = true
tracks/2/keys = {
"times": PoolRealArray( 0, 0.1, 0.3 ),
"transitions": PoolRealArray( 1, 1, 1 ),
"update": 0,
"values": [ Vector2( 3, 3 ), Vector2( 4, 2 ), Vector2( 3, 3 ) ]
}
tracks/3/type = "value"
tracks/3/path = NodePath("ShiftScaler/Spark:offset:y")
tracks/3/interp = 1
tracks/3/loop_wrap = true
tracks/3/imported = false
tracks/3/enabled = true
tracks/3/keys = {
"times": PoolRealArray( 0, 0.1, 0.3 ),
"transitions": PoolRealArray( 1, 1, 1 ),
"update": 0,
"values": [ 27.0, 44.0, 27.0 ]
}
tracks/4/type = "value"
tracks/4/path = NodePath("ShiftScaler/Spark:flip_h")
tracks/4/interp = 1
tracks/4/loop_wrap = true
tracks/4/imported = false
tracks/4/enabled = true
tracks/4/keys = {
"times": PoolRealArray( 0, 0.1 ),
"transitions": PoolRealArray( 1, 1 ),
"update": 1,
"values": [ false, true ]
}
tracks/5/type = "value"
tracks/5/path = NodePath("ShiftScaler/Spark:scale")
tracks/5/interp = 1
tracks/5/loop_wrap = true
tracks/5/imported = false
tracks/5/enabled = true
tracks/5/keys = {
"times": PoolRealArray( 0, 0.1, 0.3 ),
"transitions": PoolRealArray( 1, 1, 1 ),
"update": 0,
"values": [ Vector2( 3, 3 ), Vector2( 4, 2 ), Vector2( 3, 3 ) ]
}

[sub_resource type="Animation" id=9]
resource_name = "shift"
length = 0.2
step = 0.025
tracks/0/type = "value"
tracks/0/path = NodePath("ShiftScaler/Body:scale")
tracks/0/interp = 1
tracks/0/loop_wrap = true
tracks/0/imported = false
tracks/0/enabled = true
tracks/0/keys = {
"times": PoolRealArray( 0, 0.1, 0.2 ),
"transitions": PoolRealArray( 1, 1, 1 ),
"update": 0,
"values": [ Vector2( 3, 3 ), Vector2( 2, 4 ), Vector2( 3, 3 ) ]
}
tracks/1/type = "value"
tracks/1/path = NodePath("ShiftScaler/Spark:visible")
tracks/1/interp = 1
tracks/1/loop_wrap = true
tracks/1/imported = false
tracks/1/enabled = true
tracks/1/keys = {
"times": PoolRealArray( 0, 0.2 ),
"transitions": PoolRealArray( 1, 1 ),
"update": 1,
"values": [ false, true ]
}

[node name="Robot" type="Area2D"]
input_pickable = false
monitorable = false
script = ExtResource( 1 )
__meta__ = {
"_edit_group_": true
}

[node name="ShiftScaler" type="Node2D" parent="."]

[node name="Body" type="Sprite" parent="ShiftScaler"]
scale = Vector2( 3, 3 )
texture = ExtResource( 2 )
hframes = 3

[node name="Spark" type="Sprite" parent="ShiftScaler"]
scale = Vector2( 3, 3 )
texture = ExtResource( 2 )
offset = Vector2( 0, 27 )
hframes = 3
frame = 2

[node name="Explosion" type="Particles2D" parent="ShiftScaler"]
emitting = false
amount = 3
lifetime = 1.2
one_shot = true
explosiveness = 1.0
process_material = SubResource( 5 )
texture = ExtResource( 3 )

[node name="CollisionShape2D" type="CollisionShape2D" parent="."]
shape = SubResource( 6 )

[node name="Noises" type="AudioStreamPlayer2D" parent="."]
stream = ExtResource( 4 )
bus = "Effects"

[node name="Tween" type="Tween" parent="."]
playback_process_mode = 0

[node name="AnimationPlayer" type="AnimationPlayer" parent="."]
autoplay = "idle"
anims/idle = SubResource( 7 )
anims/land = SubResource( 8 )
anims/shift = SubResource( 9 )
