[gd_resource type="Animation" format=2]

[resource]
resource_name = "fall"
length = 0.2
tracks/0/type = "value"
tracks/0/path = NodePath("CollisionShape2D:position")
tracks/0/interp = 1
tracks/0/loop_wrap = true
tracks/0/imported = false
tracks/0/enabled = true
tracks/0/keys = {
"times": PoolRealArray( 0.1 ),
"transitions": PoolRealArray( 1 ),
"update": 3,
"values": [ Vector2( 0, 0 ) ]
}
tracks/1/type = "value"
tracks/1/path = NodePath("CollisionShape2D/Sprite:offset:y")
tracks/1/interp = 1
tracks/1/loop_wrap = true
tracks/1/imported = false
tracks/1/enabled = true
tracks/1/keys = {
"times": PoolRealArray( 0.1, 0.2 ),
"transitions": PoolRealArray( 1, 1 ),
"update": 3,
"values": [ 32.0, 0.0 ]
}
tracks/2/type = "value"
tracks/2/path = NodePath("CollisionShape2D/Sprite:frame")
tracks/2/interp = 1
tracks/2/loop_wrap = true
tracks/2/imported = false
tracks/2/enabled = true
tracks/2/keys = {
"times": PoolRealArray( 0.1 ),
"transitions": PoolRealArray( 1 ),
"update": 1,
"values": [ 2 ]
}
tracks/3/type = "value"
tracks/3/path = NodePath("CollisionShape2D/Sprite:scale")
tracks/3/interp = 1
tracks/3/loop_wrap = true
tracks/3/imported = false
tracks/3/enabled = true
tracks/3/keys = {
"times": PoolRealArray( 0.1, 0.2 ),
"transitions": PoolRealArray( 1, 1 ),
"update": 3,
"values": [ Vector2( 1.2, 0.8 ), Vector2( 1, 1 ) ]
}
