[gd_scene load_steps=10 format=2]

[ext_resource path="res://nanogames/digital_warp/spaceship/spaceship.gd" type="Script" id=1]
[ext_resource path="res://nanogames/digital_warp/spaceship/assets/spaceship.svg" type="Texture" id=2]
[ext_resource path="res://nanogames/digital_warp/spaceship/assets/alert.wav" type="AudioStream" id=3]
[ext_resource path="res://nanogames/digital_warp/spaceship/assets/move.wav" type="AudioStream" id=4]

[sub_resource type="RectangleShape2D" id=1]
extents = Vector2( 90, 40 )

[sub_resource type="Gradient" id=2]
offsets = PoolRealArray( 0, 0.25, 1 )
colors = PoolColorArray( 1, 1, 1, 1, 1, 1, 1, 0.490196, 1, 1, 1, 0 )

[sub_resource type="GradientTexture" id=3]
gradient = SubResource( 2 )
width = 32

[sub_resource type="ParticlesMaterial" id=4]
gravity = Vector3( 0, 0, 0 )
color_ramp = SubResource( 3 )

[sub_resource type="Animation" id=5]
length = 1.2
tracks/0/type = "value"
tracks/0/path = NodePath("CollisionShape2D:position")
tracks/0/interp = 1
tracks/0/loop_wrap = true
tracks/0/imported = false
tracks/0/enabled = true
tracks/0/keys = {
"times": PoolRealArray( 0, 1.2 ),
"transitions": PoolRealArray( 1, 1 ),
"update": 0,
"values": [ Vector2( 0, 300 ), Vector2( 0, 450 ) ]
}
tracks/1/type = "value"
tracks/1/path = NodePath("CollisionShape2D/Trail:self_modulate")
tracks/1/interp = 1
tracks/1/loop_wrap = true
tracks/1/imported = false
tracks/1/enabled = true
tracks/1/keys = {
"times": PoolRealArray( 0, 0.3, 0.6, 0.9 ),
"transitions": PoolRealArray( 1, 1, 1, 1 ),
"update": 0,
"values": [ Color( 1, 1, 1, 0.784314 ), Color( 1, 0.517647, 0.486275, 1 ), Color( 1, 1, 1, 0.784314 ), Color( 1, 0.517647, 0.486275, 1 ) ]
}
tracks/2/type = "value"
tracks/2/path = NodePath("CollisionShape2D/Sprite:self_modulate")
tracks/2/interp = 1
tracks/2/loop_wrap = true
tracks/2/imported = false
tracks/2/enabled = true
tracks/2/keys = {
"times": PoolRealArray( 0, 0.3, 0.6, 0.9 ),
"transitions": PoolRealArray( 1, 1, 1, 1 ),
"update": 0,
"values": [ Color( 1, 1, 1, 1 ), Color( 1, 0.517647, 0.486275, 1 ), Color( 1, 1, 1, 1 ), Color( 1, 0.517647, 0.486275, 1 ) ]
}

[node name="Spaceship" type="Area2D"]
z_index = 1
input_pickable = false
monitorable = false
script = ExtResource( 1 )

[node name="CollisionShape2D" type="CollisionShape2D" parent="."]
position = Vector2( 0, 300 )
shape = SubResource( 1 )
__meta__ = {
"_edit_group_": true
}

[node name="Trail" type="Particles2D" parent="CollisionShape2D"]
self_modulate = Color( 1, 1, 1, 0.784314 )
emitting = false
amount = 2
lifetime = 0.2
local_coords = false
process_material = SubResource( 4 )
texture = ExtResource( 2 )

[node name="Sprite" type="Sprite" parent="CollisionShape2D"]
texture = ExtResource( 2 )

[node name="Move" type="AudioStreamPlayer2D" parent="CollisionShape2D"]
stream = ExtResource( 4 )
volume_db = -80.0
autoplay = true
bus = "Effects"

[node name="Die" type="AudioStreamPlayer2D" parent="CollisionShape2D"]
stream = ExtResource( 3 )
bus = "Effects"

[node name="Tween" type="Tween" parent="."]

[node name="AnimationPlayer" type="AnimationPlayer" parent="."]
anims/die = SubResource( 5 )
