[gd_scene load_steps=6 format=2]

[ext_resource path="res://nanogames/gravity_shift/obstacles/obstacle.gd" type="Script" id=1]
[ext_resource path="res://nanogames/gravity_shift/obstacles/assets/obstacle.png" type="Texture" id=2]
[ext_resource path="res://nanogames/gravity_shift/obstacles/assets/lift.wav" type="AudioStream" id=3]

[sub_resource type="RectangleShape2D" id=1]
extents = Vector2( 50, 125 )

[sub_resource type="Animation" id=2]
resource_name = "activate"
length = 0.2
tracks/0/type = "value"
tracks/0/path = NodePath("CollisionShape2D/NinePatchRect:rect_position:y")
tracks/0/interp = 1
tracks/0/loop_wrap = true
tracks/0/imported = false
tracks/0/enabled = true
tracks/0/keys = {
"times": PoolRealArray( 0, 0.2 ),
"transitions": PoolRealArray( 1, 1 ),
"update": 0,
"values": [ 125.0, -125.0 ]
}
tracks/1/type = "value"
tracks/1/path = NodePath("CollisionShape2D2/NinePatchRect:rect_position:y")
tracks/1/interp = 1
tracks/1/loop_wrap = true
tracks/1/imported = false
tracks/1/enabled = true
tracks/1/keys = {
"times": PoolRealArray( 0, 0.2 ),
"transitions": PoolRealArray( 1, 1 ),
"update": 0,
"values": [ 125.0, -125.0 ]
}

[node name="Obstacle2" type="Area2D"]
input_pickable = false
monitoring = false
script = ExtResource( 1 )
__meta__ = {
"_edit_horizontal_guides_": [ 360.07, -359.639 ]
}

[node name="VisibilityNotifier2D" type="VisibilityNotifier2D" parent="."]
rect = Rect2( -200, -360, 400, 720 )
__meta__ = {
"_edit_lock_": true
}

[node name="CollisionShape2D" type="CollisionShape2D" parent="."]
position = Vector2( -150, 235 )
shape = SubResource( 1 )

[node name="NinePatchRect" type="NinePatchRect" parent="CollisionShape2D"]
show_behind_parent = true
margin_left = -50.0
margin_top = 125.0
margin_right = -17.0
margin_bottom = 208.0
rect_scale = Vector2( 3, 3 )
texture = ExtResource( 2 )
patch_margin_left = 4
patch_margin_top = 4
patch_margin_right = 4
axis_stretch_vertical = 1
__meta__ = {
"_edit_use_anchors_": false
}

[node name="CollisionShape2D2" type="CollisionShape2D" parent="."]
position = Vector2( 150, -235 )
rotation = 3.14159
shape = SubResource( 1 )

[node name="NinePatchRect" type="NinePatchRect" parent="CollisionShape2D2"]
show_behind_parent = true
margin_left = -50.0
margin_top = 125.0
margin_right = -17.0
margin_bottom = 208.0
rect_scale = Vector2( 3, 3 )
texture = ExtResource( 2 )
patch_margin_left = 4
patch_margin_top = 4
patch_margin_right = 4
axis_stretch_vertical = 1
__meta__ = {
"_edit_use_anchors_": false
}

[node name="Lift" type="AudioStreamPlayer2D" parent="."]
stream = ExtResource( 3 )
bus = "Effects"
__meta__ = {
"_edit_lock_": true
}

[node name="AnimationPlayer" type="AnimationPlayer" parent="."]
anims/activate = SubResource( 2 )

[connection signal="screen_exited" from="VisibilityNotifier2D" to="." method="queue_free"]
